%YAML 1.1
%TAG !u! tag:unity3d.com,2011:
--- !u!114 &11400000
MonoBehaviour:
  m_ObjectHideFlags: 0
  m_CorrespondingSourceObject: {fileID: 0}
  m_PrefabInternal: {fileID: 0}
  m_GameObject: {fileID: 0}
  m_Enabled: 1
  m_EditorHideFlags: 0
  m_Script: {fileID: 11500000, guid: e8b7e695ad89fa14ea5f47f8992dad24, type: 3}
  m_Name: Uncommon
  m_EditorClassIdentifier: 
  name: Uncommon
  colour: {r: 0.2990567, g: 0.7924528, b: 0.16820934, a: 1}
  dropRate: 50
  dropPrefab: {fileID: 1927852098346998, guid: c2b495cb5db29394a9aa031fbc89c0ad, type: 2}
