%YAML 1.1
%TAG !u! tag:unity3d.com,2011:
--- !u!114 &11400000
MonoBehaviour:
  m_ObjectHideFlags: 0
  m_CorrespondingSourceObject: {fileID: 0}
  m_PrefabInstance: {fileID: 0}
  m_PrefabAsset: {fileID: 0}
  m_GameObject: {fileID: 0}
  m_Enabled: 1
  m_EditorHideFlags: 0
  m_Script: {fileID: 11500000, guid: e6b9409e4b13756489577acba377dfd7, type: 3}
  m_Name: Explosive Ammo
  m_EditorClassIdentifier: 
  name: Explosive Ammo
  description: Explodes on impact.
  thumbnail: {fileID: 21300000, guid: 63beb7eff8a8ef543b961c7bd629bdf3, type: 3}
  shellCasingPrefab: {fileID: 1734074161201869139, guid: 572b7ca547be3c443ba0676ebbbd8a13,
    type: 3}
  timeToLive: 5
  projectilePrefab: {fileID: 6030832696216096234, guid: e7a152b32266c554d98f77d813809d11,
    type: 3}
  statusEffect: {fileID: 11400000, guid: efe890aa4cfdf504ba3bc7b71fc4adcb, type: 2}
  projectileCount: 1
  aoeRange: 1
  accuracy: 0
  damage: 1.3
  knockback: 2
  range: 1
  velocity: 500
